{
  "message": "OK",
  "objectResponse": [
      {
          "fechaAgenda": "03-06-2021 19:22",
          "numeroAgenda": "2AED73A140"
      },
      {
          "fechaAgenda": "03-06-2021 19:16",
          "numeroAgenda": "13B7AE001E"
      },
      {
          "fechaAgenda": "03-06-2021 19:10",
          "numeroAgenda": "267F40F4DC"
      }
  ],
  "statusCode": 201
}